<?xml version="1.0" encoding="utf-8"?>
<!-- Generator: Adobe Illustrator 19.0.0, SVG Export Plug-In . SVG Version: 6.00 Build 0)  -->
<svg version="1.1" id="Layer_1" xmlns="http://www.w3.org/2000/svg" xmlns:xlink="http://www.w3.org/1999/xlink" x="0px" y="0px"
	 viewBox="4 -7 20 20" style="enable-background:new 4 -7 20 20;" xml:space="preserve">
<style type="text/css">
	.st0{display:none;}
	.st1{display:inline;}
	.st2{fill:#929292;}
	.st3{display:inline;fill:#929292;}
	.st4{display:inline;fill:none;stroke:#919191;stroke-linecap:round;stroke-linejoin:round;stroke-miterlimit:10;}
	.st5{display:inline;fill:none;stroke:#919191;stroke-miterlimit:10;}
	.st6{fill:none;stroke:#919191;stroke-linecap:round;stroke-linejoin:round;}
	.st7{fill:none;stroke:#919191;stroke-linecap:round;stroke-linejoin:round;stroke-dasharray:0,4.0965;}
	.st8{fill:none;stroke:#919191;stroke-linecap:round;stroke-linejoin:round;stroke-miterlimit:10;}
</style>
<g id="XMLID_109_" class="st0">
	<g id="XMLID_112_" class="st1">
		<path id="XMLID_113_" class="st2" d="M-37.7,28.3c-0.1,0-0.1,0-0.2,0c0,0,0,0-0.1,0c0,0-0.1-0.1-0.3-0.2c-0.6-0.4-2.1-1.5-3.1-2.2
			c-3.6-3-5.6-5.1-5.9-6.6c-0.2-0.5-0.3-1.1-0.3-1.7c0-1.6,0.6-3.2,1.7-4.3c1-1,2.3-1.6,3.7-1.6l0,0c1.7,0,3.3,0.8,4.3,2.1
			c1-1.4,2.6-2.2,4.3-2.2h0.1c2.9,0,5.3,2.6,5.4,5.8c0,0.6-0.1,1.2-0.2,1.8c-0.3,1.5-2.2,3.7-5.8,6.6c-1.4,1.1-2.5,2-3.4,2.5
			C-37.6,28.3-37.6,28.3-37.7,28.3L-37.7,28.3z M-42.2,12.5c-1.2,0-2.3,0.5-3.1,1.3c-0.9,1-1.5,2.3-1.5,3.8c0,0.5,0.1,1.1,0.2,1.5
			c0.2,0.9,1.4,2.7,5.7,6c1,0.7,2.4,1.8,3.1,2.2c0,0,0.1,0,0.1,0.1c0.8-0.5,1.8-1.3,3-2.3c4.2-3.4,5.3-5.2,5.5-6.1
			c0.2-0.6,0.2-1.1,0.2-1.7c0-2.7-2.1-5-4.6-5h-0.1c-1.6,0-3.1,0.9-3.9,2.3c-0.1,0.1-0.2,0.2-0.3,0.2l0,0c-0.1,0-0.3-0.1-0.3-0.2
			C-39.1,13.3-40.6,12.5-42.2,12.5L-42.2,12.5z"/>
	</g>
	<g id="XMLID_110_" class="st1">
		<path id="XMLID_34_" class="st2" d="M-31.3,18.9C-31.3,18.9-31.4,18.9-31.3,18.9c-0.3-0.1-0.4-0.3-0.4-0.5l0.1-0.2
			c0.1-0.3,0.1-0.5,0.1-0.8c0-1.4-0.9-2.4-2.1-2.4c-0.2,0-0.4-0.2-0.4-0.4c0-0.2,0.2-0.4,0.4-0.4l0,0c1.6,0,2.8,1.4,2.9,3.2
			c0,0.4,0,0.7-0.1,1v0.2C-31,18.8-31.1,18.9-31.3,18.9L-31.3,18.9z"/>
	</g>
</g>
<g id="XMLID_100_" class="st0">
	<g id="XMLID_105_" class="st1">
		<path id="XMLID_106_" class="st2" d="M-37.9,29.3c-0.1,0-0.2,0-0.3-0.1c-0.2-0.2-7.6-6.5-7.6-10.8c0-4.4,3.5-7.9,7.9-7.9
			S-30,14-30,18.4c0,4.3-7.3,10.6-7.6,10.8C-37.7,29.3-37.8,29.3-37.9,29.3L-37.9,29.3z M-37.9,11.3c-3.9,0-7.1,3.2-7.1,7.1
			c0,3.5,5.8,8.8,7.1,10c1.3-1.2,7.1-6.5,7.1-10C-30.8,14.5-34,11.3-37.9,11.3L-37.9,11.3z"/>
	</g>
	<g id="XMLID_101_" class="st1">
		<path id="XMLID_102_" class="st2" d="M-37.9,22c-2,0-3.6-1.6-3.6-3.6s1.6-3.6,3.6-3.6s3.6,1.6,3.6,3.6C-34.2,20.4-35.9,22-37.9,22
			L-37.9,22z M-37.9,15.6c-1.6,0-2.8,1.3-2.8,2.8s1.3,2.8,2.8,2.8c1.6,0,2.8-1.3,2.8-2.8S-36.3,15.6-37.9,15.6L-37.9,15.6z"/>
	</g>
</g>
<g id="XMLID_87_" class="st0">
	<g id="XMLID_98_" class="st1">
		<path id="XMLID_29_" class="st2" d="M-46.5,29.2c-0.3,0-0.5-0.2-0.5-0.4v-7.3c0-0.2,0.2-0.4,0.4-0.4s0.4,0.2,0.4,0.4v7.3
			C-46.1,29-46.3,29.2-46.5,29.2L-46.5,29.2z"/>
	</g>
	<g id="XMLID_96_" class="st1">
		<path id="XMLID_28_" class="st2" d="M-43.1,29.2c-0.2,0-0.4-0.2-0.4-0.4V14.4c0-0.2,0.2-0.4,0.4-0.4s0.4,0.2,0.4,0.4v14.4
			C-42.7,29-42.8,29.2-43.1,29.2L-43.1,29.2z"/>
	</g>
	<g id="XMLID_94_" class="st1">
		<path id="XMLID_27_" class="st2" d="M-39.6,29.2c-0.2,0-0.4-0.2-0.4-0.4V11c0-0.2,0.2-0.4,0.4-0.4s0.4,0.2,0.4,0.4v17.8
			C-39.2,29-39.4,29.2-39.6,29.2L-39.6,29.2z"/>
	</g>
	<g id="XMLID_92_" class="st1">
		<path id="XMLID_26_" class="st2" d="M-36.1,29.2c-0.2,0-0.4-0.2-0.4-0.4V17.3c0-0.2,0.2-0.4,0.4-0.4s0.4,0.2,0.4,0.4v11.6
			C-35.7,29-35.9,29.2-36.1,29.2L-36.1,29.2z"/>
	</g>
	<g id="XMLID_90_" class="st1">
		<path id="XMLID_25_" class="st2" d="M-29.2,29.2c-0.2,0-0.4-0.2-0.4-0.4v-4c0-0.2,0.2-0.4,0.4-0.4s0.4,0.2,0.4,0.4v4
			C-28.8,29-29,29.2-29.2,29.2L-29.2,29.2z"/>
	</g>
	<g id="XMLID_88_" class="st1">
		<path id="XMLID_24_" class="st2" d="M-32.7,29.2c-0.2,0-0.4-0.2-0.4-0.4V11c0-0.2,0.2-0.4,0.4-0.4s0.4,0.2,0.4,0.4v17.8
			C-32.3,29-32.4,29.2-32.7,29.2L-32.7,29.2z"/>
	</g>
</g>
<g id="XMLID_68_" class="st0">
	<g id="XMLID_83_" class="st1">
		<path id="XMLID_84_" class="st2" d="M-40.9,19c-1.7,0-3.1-1.6-3.1-3.5c0-2,1.4-3.5,3.1-3.5c1.7,0,3.1,1.6,3.1,3.5
			S-39.2,19-40.9,19L-40.9,19z M-40.9,12.8c-1.3,0-2.3,1.2-2.3,2.7s1,2.7,2.3,2.7s2.3-1.2,2.3-2.7S-39.7,12.8-40.9,12.8L-40.9,12.8z
			"/>
	</g>
	<g id="XMLID_79_" class="st1">
		<path id="XMLID_80_" class="st2" d="M-35.8,27.9h-10.4c-0.2,0-0.4-0.2-0.4-0.4l-0.2-3.4c-0.1-1.1,0.8-2.4,1.9-2.8
			c2.5-0.9,5.3-0.9,7.9,0c1.1,0.4,2,1.7,1.9,2.8l-0.2,3.4C-35.4,27.7-35.6,27.9-35.8,27.9L-35.8,27.9z M-45.8,27.1h9.7l0.2-3
			c0-0.7-0.5-1.7-1.4-2c-2.4-0.8-5-0.8-7.3,0c-0.8,0.3-1.4,1.3-1.4,2L-45.8,27.1L-45.8,27.1z"/>
	</g>
	<g id="XMLID_75_" class="st1">
		<path id="XMLID_76_" class="st2" d="M-35.8,27.9h-10.4c-0.2,0-0.4-0.2-0.4-0.4l-0.2-3.4c-0.1-1.1,0.8-2.4,1.9-2.8
			c2.5-0.9,5.3-0.9,7.9,0c1.1,0.4,2,1.7,1.9,2.8l-0.2,3.4C-35.4,27.7-35.6,27.9-35.8,27.9L-35.8,27.9z M-45.8,27.1h9.7l0.2-3
			c0-0.7-0.5-1.7-1.4-2c-2.4-0.8-5-0.8-7.3,0c-0.8,0.3-1.4,1.3-1.4,2L-45.8,27.1L-45.8,27.1z"/>
	</g>
	<g id="XMLID_73_" class="st1">
		<path id="XMLID_17_" class="st2" d="M-29.5,27.9h-4.1c-0.2,0-0.4-0.2-0.4-0.4s0.2-0.4,0.4-0.4h3.8l0.2-2.5c0-0.6-0.5-1.4-1.1-1.7
			c-1-0.3-2-0.5-3-0.5c-0.2,0-0.4-0.2-0.4-0.4c0-0.2,0.2-0.4,0.4-0.4c1.1,0,2.2,0.2,3.2,0.6s1.7,1.5,1.7,2.5l-0.2,2.9
			C-29.1,27.7-29.3,27.9-29.5,27.9L-29.5,27.9z"/>
	</g>
	<g id="XMLID_69_" class="st1">
		<path id="XMLID_70_" class="st2" d="M-32.7,19.9c-1.4,0-2.5-1.3-2.5-2.8c0-1.6,1.1-2.8,2.5-2.8s2.5,1.3,2.5,2.8
			S-31.3,19.9-32.7,19.9L-32.7,19.9z M-32.7,15c-0.9,0-1.7,0.9-1.7,2s0.8,2,1.7,2c1,0,1.7-0.9,1.7-2S-31.7,15-32.7,15L-32.7,15z"/>
	</g>
</g>
<g id="XMLID_56_" class="st0">
	<path id="XMLID_65_" class="st3" d="M-37.8,19.1c0.2,0,0.4,0.1,0.6,0.2c0.1,0.1,0.2,0.3,0.2,0.6c0,0.2-0.1,0.4-0.2,0.6
		c-0.1,0.1-0.3,0.2-0.6,0.2c-0.2,0-0.4-0.1-0.6-0.2c-0.3-0.3-0.3-0.8,0-1.1C-38.3,19.2-38.1,19.1-37.8,19.1 M-37.8,18.3
		c-0.5,0-0.9,0.2-1.2,0.5c-0.6,0.6-0.6,1.6,0,2.2c0.3,0.3,0.7,0.5,1.1,0.5c0.4,0,0.8-0.2,1.1-0.5c0.6-0.6,0.6-1.6,0-2.3
		C-37,18.5-37.4,18.3-37.8,18.3L-37.8,18.3z"/>
	<g id="XMLID_63_" class="st1">
		<path id="XMLID_12_" class="st2" d="M-32,27c-0.1,0-0.2,0-0.3-0.1c-0.1-0.2-0.1-0.4,0-0.6c1.9-1.7,3-4,3-6.3c0-2.4-1-4.6-3-6.3
			c-0.2-0.1-0.2-0.4,0-0.6s0.4-0.2,0.6,0c2.1,1.9,3.2,4.3,3.2,7s-1.1,5.1-3.2,6.9C-31.8,26.9-31.9,27-32,27L-32,27z"/>
	</g>
	<g id="XMLID_61_" class="st1">
		<path id="XMLID_11_" class="st2" d="M-35,24.3c-0.1,0-0.2,0-0.3-0.1c-0.1-0.2-0.1-0.4,0-0.6c1.1-1,1.7-2.3,1.7-3.7
			s-0.6-2.7-1.7-3.7c-0.2-0.1-0.2-0.4,0-0.6s0.4-0.2,0.6,0c1.3,1.2,2,2.7,2,4.3s-0.7,3.2-2,4.3C-34.8,24.3-34.9,24.3-35,24.3
			L-35,24.3z"/>
	</g>
	<g id="XMLID_59_" class="st1">
		<path id="XMLID_10_" class="st2" d="M-43.8,27c-0.1,0-0.2,0-0.3-0.1c-2-1.9-3.2-4.4-3.2-7s1.2-5.1,3.3-6.9c0.2-0.1,0.4-0.1,0.6,0
			c0.1,0.2,0.1,0.4,0,0.6c-1.9,1.7-3,4-3,6.3c0,2.4,1,4.6,3,6.3c0.2,0.1,0.2,0.4,0,0.6C-43.6,26.9-43.7,27-43.8,27L-43.8,27z"/>
	</g>
	<g id="XMLID_57_" class="st1">
		<path id="XMLID_9_" class="st2" d="M-40.7,24.3c-0.1,0-0.2,0-0.3-0.1c-1.3-1.1-2-2.7-2-4.3s0.7-3.2,2-4.3c0.2-0.1,0.4-0.1,0.6,0
			c0.1,0.2,0.1,0.4,0,0.6c-1.1,1-1.7,2.3-1.7,3.7s0.6,2.7,1.7,3.7c0.2,0.1,0.2,0.4,0,0.6C-40.5,24.3-40.6,24.3-40.7,24.3L-40.7,24.3
			z"/>
	</g>
</g>
<g id="XMLID_48_" class="st0">
	<g id="XMLID_52_" class="st1">
		<path id="XMLID_53_" class="st2" d="M-37.9,26.9c-4.5,0-8.4-2.8-9.8-6.9c0-0.1,0-0.2,0-0.3c1.3-4.1,5.3-6.9,9.8-6.9
			s8.4,2.8,9.8,6.9c0,0.1,0,0.2,0,0.3C-29.4,24.2-33.4,26.9-37.9,26.9L-37.9,26.9z M-46.7,19.9c1.3,3.7,4.8,6.1,8.9,6.1
			s7.6-2.5,8.9-6.1c-1.3-3.7-4.8-6.1-8.9-6.1S-45.5,16.3-46.7,19.9L-46.7,19.9z"/>
	</g>
	<path id="XMLID_49_" class="st3" d="M-33.5,21L-33.5,21c0-3-2-4.4-4.4-4.4s-4.4,1.4-4.4,4.4H-43v-1.1c0,2.4,2.6,4.4,5,4.4
		s5-2,5-4.4V21H-33.5z M-37.9,23.4c-1.9,0-3.5-1.6-3.5-3.5s1.6-3.5,3.5-3.5s3.5,1.6,3.5,3.5S-35.9,23.4-37.9,23.4z"/>
</g>
<g id="XMLID_43_" class="st0">
	<path id="XMLID_5_" class="st4" d="M-41,17.1c0-1.7,1.4-3.1,3.1-3.1"/>
	<path id="XMLID_4_" class="st4" d="M-37.9,12.7c0.3,0,0.6,0,0.9,0.1c0-0.1,0-0.3,0-0.4c0-0.5-0.4-0.9-0.9-0.9s-0.9,0.4-0.9,0.9
		c0,0.1,0,0.3,0,0.4C-38.5,12.7-38.2,12.7-37.9,12.7z"/>
	<path id="XMLID_3_" class="st4" d="M-33.5,19.8v-2.7c0-2.4-2-4.4-4.4-4.4l0,0c-2.4,0-4.4,2-4.4,4.4v2.7c0,1.5-0.5,3-1.5,4.1
		l-1.4,1.6c-0.4,0.4-0.1,1,0.5,1H-31c0.5,0,0.8-0.6,0.5-1l-1.4-1.6C-32.9,22.7-33.5,21.3-33.5,19.8z"/>
	<path id="XMLID_2_" class="st5" d="M-36.3,26.8c0,0.9-0.7,1.6-1.6,1.6c-0.9,0-1.6-0.7-1.6-1.6c0-0.3,0-0.3,0-0.3h3.1
		C-36.3,26.5-36.3,26.6-36.3,26.8z"/>
</g>
<g>
	<g>
		<g>
			<g>
				<line class="st6" x1="18.4" y1="3.5" x2="18.4" y2="3.5"/>
				<path class="st7" d="M18.3,2.3c-0.1-0.6-0.2-1.1-0.5-1.6c-0.3-0.5-0.6-1-1.3-0.9c-0.1,0-0.3,0-0.4,0.1c-0.8,0.3-1.3,1.6-1.7,2.9
					c-0.1,0.4-0.3,0.8-0.5,1.2c-0.5,1.1-1.2,2-2.2,2.1c-0.1,0-0.3,0-0.4-0.1c-0.9-0.3-1.6-1.4-1.9-2.7C9.1,2,9,0.8,9,0.1"/>
				<line class="st6" x1="9" y1="-0.6" x2="9" y2="-0.6"/>
			</g>
		</g>
	</g>
	<line class="st8" x1="19.6" y1="4.5" x2="17.3" y2="6.9"/>
	<line class="st8" x1="17.3" y1="4.5" x2="19.6" y2="6.9"/>
	<polygon class="st8" points="16.7,-3.2 11.3,-5 6,-3.2 6,11 11.3,9.2 16.7,11 22,9.2 22,-5 	"/>
</g>
</svg>
