<?xml version="1.0" encoding="utf-8"?>
<!-- Generator: Adobe Illustrator 19.0.0, SVG Export Plug-In . SVG Version: 6.00 Build 0)  -->
<svg version="1.1" id="Layer_1" xmlns="http://www.w3.org/2000/svg" xmlns:xlink="http://www.w3.org/1999/xlink" x="0px" y="0px"
	 viewBox="0 0 22 22" style="enable-background:new 0 0 22 22;" xml:space="preserve">
<style type="text/css">
	.st0{fill:#6B6B6B;}
	.st1{display:none;}
	.st2{display:inline;}
	.st3{fill:#858585;}
</style>
<g id="XMLID_27_">
	<g id="XMLID_33_">
		<g id="XMLID_34_">
			<path id="XMLID_35_" class="st0" d="M11,21.3c-5.8,0-10.4-4.7-10.4-10.4C0.6,5.1,5.2,0.4,11,0.4c5.8,0,10.4,4.7,10.4,10.4
				C21.4,16.6,16.8,21.3,11,21.3L11,21.3z M11,0.9c-5.5,0-10,4.5-10,10c0,5.5,4.5,10,10,10c5.5,0,10-4.5,10-10
				C21,5.3,16.5,0.9,11,0.9L11,0.9z"/>
		</g>
	</g>
	<g id="XMLID_28_">
		<g id="XMLID_31_">
			<path id="XMLID_8_" class="st0" d="M11,16.1c-0.1,0-0.2-0.1-0.2-0.2V5.8c0-0.1,0.1-0.2,0.2-0.2c0.1,0,0.2,0.1,0.2,0.2v10.1
				C11.2,16,11.1,16.1,11,16.1L11,16.1z"/>
		</g>
		<g id="XMLID_29_">
			<path id="XMLID_7_" class="st0" d="M16.1,11.1H5.9c-0.1,0-0.2-0.1-0.2-0.2c0-0.1,0.1-0.2,0.2-0.2h10.1c0.1,0,0.2,0.1,0.2,0.2
				C16.3,11,16.2,11.1,16.1,11.1L16.1,11.1z"/>
		</g>
	</g>
</g>
<g id="XMLID_19_" class="st1">
	<g id="XMLID_22_" class="st2">
		<g id="XMLID_23_">
			<path id="XMLID_24_" class="st0" d="M11,21.3c-5.8,0-10.4-4.7-10.4-10.4C0.6,5.1,5.2,0.4,11,0.4c5.8,0,10.4,4.7,10.4,10.4
				C21.4,16.6,16.8,21.3,11,21.3L11,21.3z M11,0.9c-5.5,0-10,4.5-10,10c0,5.5,4.5,10,10,10c5.5,0,10-4.5,10-10
				C21,5.3,16.5,0.9,11,0.9L11,0.9z"/>
		</g>
	</g>
	<g id="XMLID_20_" class="st2">
		<path id="XMLID_4_" class="st0" d="M16.1,11.1H5.9c-0.1,0-0.2-0.1-0.2-0.2c0-0.1,0.1-0.2,0.2-0.2h10.1c0.1,0,0.2,0.1,0.2,0.2
			C16.3,11,16.2,11.1,16.1,11.1L16.1,11.1z"/>
	</g>
</g>
<g id="XMLID_12_" class="st1">
	<g id="XMLID_17_" class="st2">
		<path id="XMLID_3_" class="st3" d="M0.5,14.7c0,0.3,0.2,0.5,0.5,0.5h8.3c0.3,0,0.5-0.2,0.5-0.5c0-0.3-0.2-0.5-0.5-0.5H1
			C0.7,14.3,0.5,14.5,0.5,14.7L0.5,14.7z"/>
	</g>
	<g id="XMLID_15_" class="st2">
		<path id="XMLID_2_" class="st3" d="M0.5,10.8c0,0.3,0.2,0.5,0.5,0.5h16.2c0.3,0,0.5-0.2,0.5-0.5c0-0.3-0.2-0.5-0.5-0.5H1
			C0.7,10.4,0.5,10.6,0.5,10.8L0.5,10.8z"/>
	</g>
	<g id="XMLID_13_" class="st2">
		<path id="XMLID_1_" class="st3" d="M0.5,6.9c0,0.3,0.2,0.5,0.5,0.5H21c0.3,0,0.5-0.2,0.5-0.5c0-0.3-0.2-0.5-0.5-0.5H1
			C0.7,6.5,0.5,6.7,0.5,6.9L0.5,6.9z"/>
	</g>
</g>
</svg>
