<?xml version="1.0" encoding="utf-8"?>
<!-- Generator: Adobe Illustrator 19.0.0, SVG Export Plug-In . SVG Version: 6.00 Build 0)  -->
<svg version="1.1" id="Layer_1" xmlns="http://www.w3.org/2000/svg" xmlns:xlink="http://www.w3.org/1999/xlink" x="0px" y="0px"
	 viewBox="0 0 18 18" style="enable-background:new 0 0 18 18;" xml:space="preserve">
<style type="text/css">
	.st0{display:none;}
	.st1{display:inline;fill:#6E6E6E;}
	.st2{fill:#6E6E6E;}
	.st3{display:inline;}
	.st4{display:none;fill:#6E6E6E;}
</style>
<g id="XMLID_59_" class="st0">
	<path id="XMLID_60_" class="st1" d="M9.8,16.3H8.2c-0.4,0-0.8-0.4-0.8-0.8v-1.1c0-0.1-0.1-0.3-0.2-0.3L6.7,14c-0.2-0.1-0.3,0-0.4,0
		l-0.8,0.8c-0.3,0.3-0.8,0.3-1.1,0l-1.2-1.2C3.1,13.5,3,13.3,3,13c0-0.2,0.1-0.4,0.2-0.6L4,11.7c0.1-0.1,0.1-0.3,0.1-0.4l-0.2-0.5
		c0-0.1-0.2-0.2-0.3-0.2H2.4c-0.4,0-0.8-0.4-0.8-0.8V8.2c0-0.4,0.4-0.8,0.8-0.8h1.1c0.1,0,0.3-0.1,0.3-0.2L4,6.7
		c0.1-0.1,0-0.3,0-0.4L3.2,5.5C3.1,5.4,3,5.2,3,5c0-0.2,0.1-0.4,0.2-0.6l1.2-1.2c0.3-0.3,0.8-0.3,1.1,0L6.3,4C6.4,4.1,6.5,4.1,6.6,4
		l0.5-0.2c0.1,0,0.2-0.2,0.2-0.3V2.4c0-0.4,0.4-0.8,0.8-0.8h1.7c0.4,0,0.8,0.4,0.8,0.8v1.1c0,0.1,0.1,0.3,0.2,0.3L11.3,4
		c0.2,0.1,0.3,0,0.4,0l0.8-0.8c0.3-0.3,0.8-0.3,1.1,0l1.2,1.2C14.9,4.5,15,4.7,15,5c0,0.2-0.1,0.4-0.2,0.6L14,6.3
		c-0.1,0.1-0.1,0.3-0.1,0.4l0.2,0.5c0,0.1,0.2,0.2,0.3,0.2h1.1c0.4,0,0.8,0.4,0.8,0.8v1.7c0,0.4-0.4,0.8-0.8,0.8h-1.1
		c-0.1,0-0.3,0.1-0.3,0.2L14,11.3c-0.1,0.1,0,0.3,0,0.4l0.8,0.8c0.1,0.1,0.2,0.3,0.2,0.6c0,0.2-0.1,0.4-0.2,0.6l-1.2,1.2
		c-0.3,0.3-0.8,0.3-1.1,0L11.7,14c-0.1-0.1-0.3-0.1-0.4-0.1l-0.5,0.2c-0.1,0-0.2,0.2-0.2,0.3v1.1C10.6,16,10.3,16.3,9.8,16.3
		L9.8,16.3z M6.5,13.3c0.1,0,0.3,0,0.4,0.1l0.5,0.2C7.7,13.7,8,14.1,8,14.5v1.1c0,0.1,0.1,0.1,0.1,0.1h1.7c0.1,0,0.1-0.1,0.1-0.1
		v-1.1c0-0.4,0.3-0.8,0.7-0.9l0.5-0.2c0.3-0.1,0.8-0.1,1.1,0.2l0.8,0.8c0.1,0.1,0.1,0.1,0.2,0l1.2-1.2c0,0,0-0.1,0-0.1
		c0,0,0-0.1,0-0.1l-0.8-0.8c-0.3-0.3-0.4-0.8-0.2-1.1l0.2-0.5c0.1-0.4,0.5-0.6,0.9-0.6h1.1c0.1,0,0.1-0.1,0.1-0.1V8.2
		c0-0.1-0.1-0.1-0.1-0.1h-1.1c-0.4,0-0.8-0.3-0.9-0.7l-0.2-0.5c-0.2-0.3-0.1-0.8,0.2-1.1L14.3,5c0,0,0-0.1,0-0.1c0,0,0-0.1,0-0.1
		l-1.2-1.2c-0.1-0.1-0.1-0.1-0.2,0l-0.8,0.8c-0.3,0.3-0.8,0.4-1.1,0.2l-0.5-0.2C10.3,4.3,10,3.9,10,3.5V2.4c0-0.1-0.1-0.1-0.1-0.1
		H8.2C8.1,2.3,8,2.4,8,2.4v1.1c0,0.4-0.3,0.8-0.7,0.9L6.9,4.6C6.6,4.8,6.1,4.7,5.8,4.4L5,3.7C5,3.6,4.9,3.6,4.9,3.7L3.7,4.9
		c0,0,0,0.1,0,0.1c0,0,0,0.1,0,0.1l0.8,0.8c0.3,0.3,0.4,0.8,0.2,1.1L4.4,7.4C4.3,7.7,3.9,8,3.5,8H2.4C2.4,8,2.3,8.1,2.3,8.2v1.7
		c0,0.1,0.1,0.1,0.1,0.1h1.1c0.4,0,0.8,0.3,0.9,0.7l0.2,0.5c0.2,0.3,0.1,0.8-0.2,1.1L3.7,13c0,0,0,0.1,0,0.1c0,0,0,0.1,0,0.1
		l1.2,1.2c0.1,0.1,0.1,0.1,0.2,0l0.8-0.8C6,13.4,6.2,13.3,6.5,13.3L6.5,13.3z M9,11.5c-1.4,0-2.5-1.1-2.5-2.5c0-1.4,1.1-2.5,2.5-2.5
		c1.4,0,2.5,1.1,2.5,2.5C11.5,10.4,10.4,11.5,9,11.5L9,11.5z M9,7.1C8,7.1,7.1,8,7.1,9c0,1,0.8,1.9,1.9,1.9c1,0,1.9-0.8,1.9-1.9
		C10.9,8,10,7.1,9,7.1L9,7.1z"/>
</g>
<g id="XMLID_50_">
	<g id="XMLID_55_">
		<path id="XMLID_56_" class="st2" d="M9.1,8.1C7.5,8.1,6.2,6.7,6.2,5c0-1.8,1.3-3.2,2.8-3.2c1.5,0,2.8,1.4,2.8,3.2
			C11.9,6.7,10.6,8.1,9.1,8.1L9.1,8.1z M9.1,2.4C7.9,2.4,6.9,3.6,6.9,5c0,1.4,1,2.5,2.2,2.5c1.2,0,2.2-1.1,2.2-2.5
			C11.2,3.6,10.2,2.4,9.1,2.4L9.1,2.4z"/>
	</g>
	<g id="XMLID_51_">
		<path id="XMLID_52_" class="st2" d="M13.8,16.2H4.2c-0.2,0-0.3-0.1-0.3-0.3l-0.2-3.1c-0.1-1,0.7-2.2,1.7-2.5
			c2.3-0.8,4.9-0.8,7.2,0c1.1,0.4,1.8,1.6,1.7,2.5l-0.2,3.1C14.1,16.1,13.9,16.2,13.8,16.2L13.8,16.2z M4.5,15.6h8.9l0.2-2.8
			c0-0.6-0.5-1.6-1.3-1.9c-2.2-0.8-4.6-0.8-6.8,0c-0.8,0.3-1.3,1.2-1.3,1.9L4.5,15.6L4.5,15.6z"/>
	</g>
</g>
<g id="XMLID_37_" class="st0">
	<g id="XMLID_48_" class="st3">
		<path id="XMLID_13_" class="st2" d="M14.4,12.5c-0.2,0-0.4-0.2-0.4-0.4V8c0-2.8-2.3-5.1-5.1-5.1C6.2,2.9,3.9,5.2,3.9,8v4.1
			c0,0.2-0.2,0.4-0.4,0.4c-0.2,0-0.4-0.2-0.4-0.4V8c0-3.2,2.6-5.8,5.8-5.8c3.2,0,5.8,2.6,5.8,5.8v4.1C14.8,12.4,14.6,12.5,14.4,12.5
			L14.4,12.5z"/>
	</g>
	<g id="XMLID_43_" class="st3">
		<g id="XMLID_46_">
			<path id="XMLID_12_" class="st2" d="M14.6,12.5c-0.2,0-0.4-0.2-0.4-0.4c0-0.2,0.2-0.4,0.4-0.4c1.2,0,2.2-0.9,2.2-2
				c0-1.1-1-2-2.2-2c-0.2,0-0.4-0.2-0.4-0.4c0-0.2,0.2-0.4,0.4-0.4c1.6,0,2.9,1.2,2.9,2.8S16.2,12.5,14.6,12.5L14.6,12.5z"/>
		</g>
		<g id="XMLID_44_">
			<path id="XMLID_11_" class="st2" d="M3.4,12.5c-1.6,0-2.9-1.2-2.9-2.8S1.8,7,3.4,7c0.2,0,0.4,0.2,0.4,0.4c0,0.2-0.2,0.4-0.4,0.4
				c-1.2,0-2.2,0.9-2.2,2c0,1.1,1,2,2.2,2c0.2,0,0.4,0.2,0.4,0.4C3.8,12.4,3.6,12.5,3.4,12.5L3.4,12.5z"/>
		</g>
	</g>
	<g id="XMLID_41_" class="st3">
		<path id="XMLID_10_" class="st2" d="M11.8,15c-0.2,0-0.4-0.1-0.4-0.3c0-0.2,0.1-0.4,0.3-0.4c2.3-0.2,2.3-1.8,2.3-1.9
			c0-0.2,0.2-0.4,0.4-0.4c0,0,0,0,0,0c0.2,0,0.4,0.2,0.4,0.4C14.8,12.4,14.8,14.8,11.8,15C11.8,15,11.8,15,11.8,15L11.8,15z"/>
	</g>
	<path id="XMLID_38_" class="st1" d="M10.9,14.2c0.2,0,0.4,0.2,0.4,0.4c0,0.2-0.2,0.4-0.4,0.4c-0.2,0-0.4-0.2-0.4-0.4
		C10.4,14.4,10.6,14.2,10.9,14.2 M10.9,13.4c-0.7,0-1.2,0.5-1.2,1.2c0,0.7,0.5,1.2,1.2,1.2c0.7,0,1.2-0.5,1.2-1.2
		C12.1,13.9,11.5,13.4,10.9,13.4L10.9,13.4z"/>
</g>
<path id="XMLID_34_" class="st4" d="M5.9,3.5C6,3.4,6.2,3.2,6.4,3.1c0.2-0.2,0.4-0.3,0.7-0.4C7.4,2.5,7.7,2.4,8,2.4
	c0.3-0.1,0.6-0.1,1-0.1c0.4,0,0.8,0.1,1.2,0.2c0.4,0.1,0.7,0.3,1,0.6c0.3,0.2,0.5,0.5,0.7,0.9c0.2,0.4,0.3,0.7,0.3,1.2
	c0,0.5-0.1,0.9-0.2,1.2c-0.1,0.3-0.3,0.6-0.6,0.9c-0.2,0.3-0.5,0.5-0.7,0.7c-0.3,0.2-0.5,0.4-0.7,0.6C9.7,8.6,9.5,8.8,9.3,9
	C9.2,9.1,9.1,9.3,9.1,9.5l-0.1,1.5H8.3l0-1.6v0c0-0.3,0.1-0.5,0.2-0.7c0.1-0.2,0.3-0.4,0.6-0.6C9.3,8,9.5,7.8,9.8,7.6
	C10,7.4,10.3,7.2,10.5,7c0.2-0.2,0.4-0.5,0.6-0.8c0.1-0.3,0.2-0.7,0.2-1.1c0-0.3-0.1-0.6-0.2-0.9c-0.1-0.3-0.3-0.5-0.5-0.7
	c-0.2-0.2-0.5-0.3-0.8-0.4C9.5,3,9.2,3,8.9,3C8.5,3,8.1,3,7.8,3.1C7.5,3.2,7.2,3.4,7,3.5C6.8,3.6,6.7,3.8,6.6,3.9C6.4,4,6.4,4,6.3,4
	C6.2,4,6.1,4,6.1,3.9L5.9,3.5z M7.8,14.9c0-0.1,0-0.2,0.1-0.3c0-0.1,0.1-0.2,0.2-0.3c0.1-0.1,0.2-0.1,0.3-0.2C8.4,14,8.5,14,8.6,14
	c0.1,0,0.2,0,0.3,0.1c0.1,0,0.2,0.1,0.3,0.2c0.1,0.1,0.1,0.2,0.2,0.3c0,0.1,0.1,0.2,0.1,0.3c0,0.1,0,0.2-0.1,0.3
	c0,0.1-0.1,0.2-0.2,0.3c-0.1,0.1-0.2,0.1-0.3,0.2c-0.1,0-0.2,0.1-0.3,0.1c-0.2,0-0.4-0.1-0.6-0.2C7.8,15.3,7.8,15.1,7.8,14.9z"/>
<g id="XMLID_23_" class="st0">
	<g id="XMLID_30_" class="st3">
		<path id="XMLID_31_" class="st2" d="M14.5,16H3.5c-0.5,0-0.9-0.4-0.9-0.9V8.6c0-0.5,0.4-0.9,0.9-0.9h10.9c0.5,0,0.9,0.4,0.9,0.9
			v6.5C15.4,15.6,15,16,14.5,16L14.5,16z M3.5,8.3c-0.2,0-0.3,0.1-0.3,0.3v6.5c0,0.2,0.1,0.3,0.3,0.3h10.9c0.2,0,0.3-0.1,0.3-0.3
			V8.6c0-0.2-0.1-0.3-0.3-0.3H3.5L3.5,8.3z"/>
	</g>
	<g id="XMLID_28_" class="st3">
		<path id="XMLID_3_" class="st2" d="M12.9,8.2c-0.2,0-0.3-0.1-0.3-0.3V6.2c0-2-1.6-3.6-3.6-3.6c-2,0-3.6,1.6-3.6,3.6v1.7
			c0,0.2-0.1,0.3-0.3,0.3C4.9,8.2,4.8,8,4.8,7.9V6.2C4.8,3.9,6.7,2,9,2s4.2,1.9,4.2,4.2v1.7C13.2,8,13.1,8.2,12.9,8.2L12.9,8.2z"/>
	</g>
	<g id="XMLID_24_" class="st3">
		<path id="XMLID_25_" class="st2" d="M9.9,13.9H8.1v-1.6c-0.4-0.3-0.7-0.8-0.7-1.3c0-0.9,0.7-1.6,1.6-1.6c0.9,0,1.6,0.7,1.6,1.6
			c0,0.5-0.2,1-0.7,1.3V13.9L9.9,13.9z M8.7,13.3h0.6V12l0.2-0.1c0.3-0.2,0.5-0.5,0.5-0.8c0-0.5-0.4-1-1-1c-0.5,0-1,0.4-1,1
			c0,0.3,0.2,0.7,0.5,0.8L8.7,12V13.3L8.7,13.3z"/>
	</g>
</g>
</svg>
