<svg xmlns="http://www.w3.org/2000/svg" viewBox="0 0 57.1 57.2">
  <defs>
    <style>
      .cls-1, .cls-2 {
        fill: none;
        stroke: #fff;
        stroke-miterlimit: 10;
      }

      .cls-1 {
        fill-rule: evenodd;
      }
    </style>
  </defs>
  <g id="events" transform="translate(-317.75 -326.05)">
    <g id="Group_254" data-name="Group 254">
      <g id="Group_253" data-name="Group 253">
        <path id="Path_279" data-name="Path 279" class="cls-1" d="M348.7,328.8l-.9.8a.367.367,0,0,0-.1.3l.2,1.2c0,.2-.2.4-.4.3l-1.1-.6h-.3l-1.1.6c-.2.1-.5-.1-.4-.3l.2-1.2a.367.367,0,0,0-.1-.3l-.9-.9a.28.28,0,0,1,.2-.5l1.2-.2a.215.215,0,0,0,.2-.2l.6-1.1a.283.283,0,0,1,.5,0l.5,1.1c0,.1.1.1.2.2l1.2.2C348.8,328.3,348.9,328.6,348.7,328.8Z"/>
      </g>
    </g>
    <g id="Group_256" data-name="Group 256">
      <g id="Group_255" data-name="Group 255">
        <path id="Path_280" data-name="Path 280" class="cls-1" d="M348.7,380.5l-.9-.8a.367.367,0,0,1-.1-.3l.2-1.2c0-.2-.2-.4-.4-.3l-1.1.6h-.3l-1.1-.6c-.2-.1-.5.1-.4.3l.2,1.2a.367.367,0,0,1-.1.3l-.9.9a.28.28,0,0,0,.2.5l1.2.2a.215.215,0,0,1,.2.2l.6,1.1a.283.283,0,0,0,.5,0l.5-1.1c0-.1.1-.1.2-.2l1.2-.2C348.8,381,348.9,380.7,348.7,380.5Z"/>
      </g>
    </g>
    <g id="Group_258" data-name="Group 258">
      <g id="Group_257" data-name="Group 257">
        <path id="Path_281" data-name="Path 281" class="cls-1" d="M320.4,352.1l.9.9a.367.367,0,0,0,.3.1l1.3-.2c.2,0,.4.2.3.4l-.6,1.1v.3l.6,1.1c.1.2-.1.5-.3.4l-1.3-.2a.367.367,0,0,0-.3.1l-.9.9a.28.28,0,0,1-.5-.2l-.2-1.3a.215.215,0,0,0-.2-.2l-1.1-.6a.283.283,0,0,1,0-.5l1.2-.6a.215.215,0,0,0,.2-.2l.2-1.3C319.9,352.1,320.2,352,320.4,352.1Z"/>
      </g>
    </g>
    <g id="Group_260" data-name="Group 260">
      <g id="Group_259" data-name="Group 259">
        <path id="Path_282" data-name="Path 282" class="cls-1" d="M372.2,352.1l-.9.9a.367.367,0,0,1-.3.1l-1.3-.2c-.2,0-.4.2-.3.4l.6,1.1v.3l-.6,1.1c-.1.2.1.5.3.4l1.3-.2a.367.367,0,0,1,.3.1l.9.9a.28.28,0,0,0,.5-.2l.2-1.3a.215.215,0,0,1,.2-.2l1.1-.6a.283.283,0,0,0,0-.5l-1.2-.6a.215.215,0,0,1-.2-.2l-.2-1.3C372.7,352.1,372.4,352,372.2,352.1Z"/>
      </g>
    </g>
    <g id="Group_263" data-name="Group 263">
      <g id="Group_262" data-name="Group 262">
        <g id="Group_261" data-name="Group 261">
          <line id="Line_87" data-name="Line 87" class="cls-2" transform="translate(346.3 361.9)"/>
          <line id="Line_88" data-name="Line 88" class="cls-2" y2="6.1" transform="translate(346.3 365.9)"/>
          <line id="Line_89" data-name="Line 89" class="cls-2" transform="translate(346.3 374.1)"/>
        </g>
      </g>
    </g>
    <g id="Group_266" data-name="Group 266">
      <g id="Group_265" data-name="Group 265">
        <g id="Group_264" data-name="Group 264">
          <line id="Line_90" data-name="Line 90" class="cls-2" transform="translate(346.3 335.1)"/>
          <line id="Line_91" data-name="Line 91" class="cls-2" y2="6.2" transform="translate(346.3 339.3)"/>
          <line id="Line_92" data-name="Line 92" class="cls-2" transform="translate(346.3 347.5)"/>
        </g>
      </g>
    </g>
    <g id="Group_269" data-name="Group 269">
      <g id="Group_268" data-name="Group 268">
        <g id="Group_267" data-name="Group 267">
          <line id="Line_93" data-name="Line 93" class="cls-2" transform="translate(326.7 354.7)"/>
          <line id="Line_94" data-name="Line 94" class="cls-2" x2="6.1" transform="translate(330.9 354.7)"/>
          <line id="Line_95" data-name="Line 95" class="cls-2" transform="translate(339.1 354.7)"/>
        </g>
      </g>
    </g>
    <g id="Group_271" data-name="Group 271">
      <g id="Group_270" data-name="Group 270">
        <path id="Path_283" data-name="Path 283" class="cls-1" d="M327.7,332v1.5c0,.1.1.2.1.3l1.2.9c.2.2.2.5-.1.6l-1.4.4a.215.215,0,0,0-.2.2l-.5,1.4a.341.341,0,0,1-.6.1l-.8-1.2c-.1-.1-.2-.2-.3-.2h-1.5a.367.367,0,0,1-.3-.6l.9-1.2a.367.367,0,0,0,.1-.3l-.5-1.4c-.1-.3.2-.5.5-.4l1.4.5h.3l1.2-.9C327.4,331.5,327.7,331.7,327.7,332Z"/>
      </g>
    </g>
    <g id="Group_273" data-name="Group 273">
      <g id="Group_272" data-name="Group 272">
        <path id="Path_284" data-name="Path 284" class="cls-1" d="M368.9,373.2h-1.5c-.1,0-.2-.1-.3-.1l-.9-1.2c-.2-.2-.5-.2-.6.1l-.4,1.4a.215.215,0,0,1-.2.2l-1.4.5a.341.341,0,0,0-.1.6l1.2.8c.1.1.2.2.2.3v1.5a.367.367,0,0,0,.6.3l1.2-.9a.367.367,0,0,1,.3-.1l1.4.5c.3.1.5-.2.4-.5l-.5-1.4v-.3l.9-1.2A.338.338,0,0,0,368.9,373.2Z"/>
      </g>
    </g>
    <g id="Group_275" data-name="Group 275">
      <g id="Group_274" data-name="Group 274">
        <path id="Path_285" data-name="Path 285" class="cls-1" d="M323.6,373h1.5c.1,0,.2-.1.3-.1l.9-1.2c.2-.2.5-.2.6.1l.4,1.4a.215.215,0,0,0,.2.2l1.4.5a.341.341,0,0,1,.1.6l-1.2.8c-.1.1-.2.2-.2.3v1.5a.367.367,0,0,1-.6.3l-1.2-.9a.367.367,0,0,0-.3-.1l-1.4.5c-.3.1-.5-.2-.4-.5l.5-1.4v-.3l-.9-1.2C323.1,373.4,323.3,373,323.6,373Z"/>
      </g>
    </g>
    <g id="Group_277" data-name="Group 277">
      <g id="Group_276" data-name="Group 276">
        <path id="Path_286" data-name="Path 286" class="cls-1" d="M364.8,331.9v1.5c0,.1-.1.2-.1.3l-1.2.9c-.2.2-.2.5.1.6l1.4.4a.215.215,0,0,1,.2.2l.5,1.4a.341.341,0,0,0,.6.1l.8-1.2c.1-.1.2-.2.3-.2h1.5a.367.367,0,0,0,.3-.6l-.9-1.2a.367.367,0,0,1-.1-.3l.5-1.4c.1-.3-.2-.5-.5-.4l-1.4.5h-.3l-1.2-.9C365.1,331.4,364.8,331.6,364.8,331.9Z"/>
      </g>
    </g>
    <g id="Group_280" data-name="Group 280">
      <g id="Group_279" data-name="Group 279">
        <g id="Group_278" data-name="Group 278">
          <line id="Line_96" data-name="Line 96" class="cls-2" transform="translate(330.1 338.5)"/>
          <line id="Line_97" data-name="Line 97" class="cls-2" x2="7" y2="6.9" transform="translate(332.9 341.3)"/>
          <line id="Line_98" data-name="Line 98" class="cls-2" transform="translate(341.2 349.6)"/>
        </g>
      </g>
    </g>
    <g id="Group_283" data-name="Group 283">
      <g id="Group_282" data-name="Group 282">
        <g id="Group_281" data-name="Group 281">
          <line id="Line_99" data-name="Line 99" class="cls-2" transform="translate(330.1 370.7)"/>
          <line id="Line_100" data-name="Line 100" class="cls-2" y1="6.8" x2="7" transform="translate(332.9 361.1)"/>
          <line id="Line_101" data-name="Line 101" class="cls-2" transform="translate(341.2 359.8)"/>
        </g>
      </g>
    </g>
    <g id="Group_285" data-name="Group 285">
      <g id="Group_284" data-name="Group 284">
        <path id="Path_287" data-name="Path 287" class="cls-1" d="M340,333.5l-.5,1.2v.3l.7,1.1a.338.338,0,0,1-.3.5l-1.3-.1a.367.367,0,0,0-.3.1l-.8,1c-.2.2-.5.1-.5-.1l-.3-1.2a.215.215,0,0,0-.2-.2l-1.2-.5c-.2-.1-.3-.4,0-.5l1.1-.6c.1-.1.1-.1.1-.2l.1-1.3a.3.3,0,0,1,.5-.2l.9.8a.367.367,0,0,0,.3.1l1.2-.3C339.9,333,340.1,333.2,340,333.5Z"/>
      </g>
    </g>
    <g id="Group_287" data-name="Group 287">
      <g id="Group_286" data-name="Group 286">
        <path id="Path_288" data-name="Path 288" class="cls-1" d="M356.9,373.9l-1.2-.5a.215.215,0,0,1-.2-.2l-.3-1.2c-.1-.2-.4-.3-.5-.1l-.8,1a.367.367,0,0,1-.3.1l-1.3-.1a.382.382,0,0,0-.3.5l.7,1.1a.187.187,0,0,1,0,.3l-.5,1.2a.308.308,0,0,0,.4.4l1.2-.3a.367.367,0,0,1,.3.1l1,.8a.3.3,0,0,0,.5-.2l.1-1.3a.349.349,0,0,1,.1-.2l1.1-.7C357.2,374.3,357.2,374,356.9,373.9Z"/>
      </g>
    </g>
    <g id="Group_289" data-name="Group 289">
      <g id="Group_288" data-name="Group 288">
        <path id="Path_289" data-name="Path 289" class="cls-1" d="M325.1,360.7l1.2.5h.3l1.1-.7a.338.338,0,0,1,.5.3L328,362a.367.367,0,0,0,.1.3l1,.8c.2.2.1.5-.1.5l-1.2.3a.215.215,0,0,0-.2.2l-.5,1.2c-.1.2-.4.3-.5,0l-.6-1.1c-.1-.1-.1-.1-.2-.1l-1.3-.1a.3.3,0,0,1-.2-.5l.8-.9a.367.367,0,0,0,.1-.3l-.3-1.2C324.6,360.8,324.9,360.6,325.1,360.7Z"/>
      </g>
    </g>
    <g id="Group_291" data-name="Group 291">
      <g id="Group_290" data-name="Group 290">
        <path id="Path_290" data-name="Path 290" class="cls-1" d="M365.5,343.8,365,345a.215.215,0,0,1-.2.2l-1.2.3c-.2.1-.3.4-.1.5l1,.8a.367.367,0,0,1,.1.3l-.1,1.3a.382.382,0,0,0,.5.3l1.1-.7a.187.187,0,0,1,.3,0l1.2.5a.308.308,0,0,0,.4-.4l-.3-1.2a.367.367,0,0,1,.1-.3l.8-1a.3.3,0,0,0-.2-.5l-1.3-.1a.349.349,0,0,1-.2-.1l-.7-1.1C365.9,343.5,365.6,343.5,365.5,343.8Z"/>
      </g>
    </g>
    <g id="Group_294" data-name="Group 294">
      <g id="Group_293" data-name="Group 293">
        <g id="Group_292" data-name="Group 292">
          <line id="Line_102" data-name="Line 102" class="cls-2" transform="translate(340.2 340.2)"/>
          <line id="Line_103" data-name="Line 103" class="cls-2" x2="0.8" y2="2" transform="translate(341.9 344.1)"/>
          <line id="Line_104" data-name="Line 104" class="cls-2" transform="translate(343.5 348.1)"/>
        </g>
      </g>
    </g>
    <g id="Group_297" data-name="Group 297">
      <g id="Group_296" data-name="Group 296">
        <g id="Group_295" data-name="Group 295">
          <line id="Line_105" data-name="Line 105" class="cls-2" transform="translate(331.8 360.5)"/>
          <line id="Line_106" data-name="Line 106" class="cls-2" y1="0.8" x2="2" transform="translate(335.7 358.2)"/>
          <line id="Line_107" data-name="Line 107" class="cls-2" transform="translate(339.6 357.5)"/>
        </g>
      </g>
    </g>
    <g id="Group_299" data-name="Group 299">
      <g id="Group_298" data-name="Group 298">
        <path id="Path_291" data-name="Path 291" class="cls-1" d="M327,343.9l.5,1.2a.215.215,0,0,0,.2.2l1.2.3c.2.1.3.4.1.5l-1,.8a.367.367,0,0,0-.1.3l.1,1.3a.382.382,0,0,1-.5.3l-1.1-.7a.187.187,0,0,0-.3,0l-1.2.5a.308.308,0,0,1-.4-.4l.3-1.2a.367.367,0,0,0-.1-.3l-.8-1a.3.3,0,0,1,.2-.5l1.3-.1a.349.349,0,0,0,.2-.1l.7-1.1C326.6,343.6,326.9,343.7,327,343.9Z"/>
      </g>
    </g>
    <g id="Group_301" data-name="Group 301">
      <g id="Group_300" data-name="Group 300">
        <path id="Path_292" data-name="Path 292" class="cls-1" d="M367.4,360.8l-1.2.5h-.3l-1.1-.7a.338.338,0,0,0-.5.3l.1,1.3a.367.367,0,0,1-.1.3l-1,.8c-.2.2-.1.5.1.5l1.2.3a.215.215,0,0,1,.2.2l.5,1.2c.1.2.4.3.5,0l.6-1.1c.1-.1.1-.1.2-.1l1.3-.1a.3.3,0,0,0,.2-.5l-.8-.9a.367.367,0,0,1-.1-.3l.3-1.2C367.9,360.9,367.6,360.7,367.4,360.8Z"/>
      </g>
    </g>
    <g id="Group_303" data-name="Group 303">
      <g id="Group_302" data-name="Group 302">
        <path id="Path_293" data-name="Path 293" class="cls-1" d="M335.5,373.8l1.2-.5a.215.215,0,0,0,.2-.2l.3-1.2c.1-.2.4-.3.5-.1l.8,1a.367.367,0,0,0,.3.1l1.3-.1a.382.382,0,0,1,.3.5l-.7,1.1a.187.187,0,0,0,0,.3l.5,1.2a.308.308,0,0,1-.4.4l-1.2-.3a.367.367,0,0,0-.3.1l-1,.8a.3.3,0,0,1-.5-.2l-.1-1.3a.349.349,0,0,0-.1-.2l-1.1-.7C335.2,374.2,335.2,373.8,335.5,373.8Z"/>
      </g>
    </g>
    <g id="Group_305" data-name="Group 305">
      <g id="Group_304" data-name="Group 304">
        <path id="Path_294" data-name="Path 294" class="cls-1" d="M352.4,333.3l.5,1.2v.3l-.7,1.1a.338.338,0,0,0,.3.5l1.3-.1a.367.367,0,0,1,.3.1l.8,1c.2.2.5.1.5-.1l.3-1.2a.215.215,0,0,1,.2-.2l1.2-.5c.2-.1.3-.4,0-.5l-1.1-.6c-.1-.1-.1-.1-.1-.2l-.1-1.3a.3.3,0,0,0-.5-.2l-.9.8a.367.367,0,0,1-.3.1l-1.2-.3C352.5,332.9,352.3,333.1,352.4,333.3Z"/>
      </g>
    </g>
    <g id="Group_308" data-name="Group 308">
      <g id="Group_307" data-name="Group 307">
        <g id="Group_306" data-name="Group 306">
          <line id="Line_108" data-name="Line 108" class="cls-2" transform="translate(331.8 348.7)"/>
          <line id="Line_109" data-name="Line 109" class="cls-2" x2="1.9" y2="0.8" transform="translate(335.8 350.3)"/>
          <line id="Line_110" data-name="Line 110" class="cls-2" transform="translate(339.7 351.9)"/>
        </g>
      </g>
    </g>
    <g id="Group_311" data-name="Group 311">
      <g id="Group_310" data-name="Group 310">
        <g id="Group_309" data-name="Group 309">
          <line id="Line_111" data-name="Line 111" class="cls-2" transform="translate(340.2 369)"/>
          <line id="Line_112" data-name="Line 112" class="cls-2" y1="1.9" x2="0.9" transform="translate(341.9 363.2)"/>
          <line id="Line_113" data-name="Line 113" class="cls-2" transform="translate(343.6 361.3)"/>
        </g>
      </g>
    </g>
    <g id="Group_314" data-name="Group 314">
      <g id="Group_313" data-name="Group 313">
        <g id="Group_312" data-name="Group 312">
          <line id="Line_114" data-name="Line 114" class="cls-2" transform="translate(365.6 354.7)"/>
          <line id="Line_115" data-name="Line 115" class="cls-2" x1="6.2" transform="translate(355.3 354.7)"/>
          <line id="Line_116" data-name="Line 116" class="cls-2" transform="translate(353.2 354.7)"/>
        </g>
      </g>
    </g>
    <g id="Group_317" data-name="Group 317">
      <g id="Group_316" data-name="Group 316">
        <g id="Group_315" data-name="Group 315">
          <line id="Line_117" data-name="Line 117" class="cls-2" transform="translate(362.2 338.5)"/>
          <line id="Line_118" data-name="Line 118" class="cls-2" x1="6.9" y2="6.9" transform="translate(352.5 341.3)"/>
          <line id="Line_119" data-name="Line 119" class="cls-2" transform="translate(351.1 349.6)"/>
        </g>
      </g>
    </g>
    <g id="Group_320" data-name="Group 320">
      <g id="Group_319" data-name="Group 319">
        <g id="Group_318" data-name="Group 318">
          <line id="Line_120" data-name="Line 120" class="cls-2" transform="translate(362.2 370.7)"/>
          <line id="Line_121" data-name="Line 121" class="cls-2" x1="6.9" y1="6.8" transform="translate(352.5 361.1)"/>
          <line id="Line_122" data-name="Line 122" class="cls-2" transform="translate(351.1 359.8)"/>
        </g>
      </g>
    </g>
    <g id="Group_323" data-name="Group 323">
      <g id="Group_322" data-name="Group 322">
        <g id="Group_321" data-name="Group 321">
          <line id="Line_123" data-name="Line 123" class="cls-2" transform="translate(352.1 340.2)"/>
          <line id="Line_124" data-name="Line 124" class="cls-2" x1="0.9" y2="2" transform="translate(349.6 344.1)"/>
          <line id="Line_125" data-name="Line 125" class="cls-2" transform="translate(348.8 348.1)"/>
        </g>
      </g>
    </g>
    <g id="Group_326" data-name="Group 326">
      <g id="Group_325" data-name="Group 325">
        <g id="Group_324" data-name="Group 324">
          <line id="Line_126" data-name="Line 126" class="cls-2" transform="translate(360.5 360.5)"/>
          <line id="Line_127" data-name="Line 127" class="cls-2" x1="1.9" y1="0.8" transform="translate(354.7 358.2)"/>
          <line id="Line_128" data-name="Line 128" class="cls-2" transform="translate(352.7 357.5)"/>
        </g>
      </g>
    </g>
    <g id="Group_329" data-name="Group 329">
      <g id="Group_328" data-name="Group 328">
        <g id="Group_327" data-name="Group 327">
          <line id="Line_129" data-name="Line 129" class="cls-2" transform="translate(360.5 348.7)"/>
          <line id="Line_130" data-name="Line 130" class="cls-2" x1="2" y2="0.8" transform="translate(354.6 350.3)"/>
          <line id="Line_131" data-name="Line 131" class="cls-2" transform="translate(352.6 351.9)"/>
        </g>
      </g>
    </g>
    <g id="Group_332" data-name="Group 332">
      <g id="Group_331" data-name="Group 331">
        <g id="Group_330" data-name="Group 330">
          <line id="Line_132" data-name="Line 132" class="cls-2" transform="translate(352.1 369)"/>
          <line id="Line_133" data-name="Line 133" class="cls-2" x1="0.8" y1="1.9" transform="translate(349.6 363.2)"/>
          <line id="Line_134" data-name="Line 134" class="cls-2" transform="translate(348.7 361.3)"/>
        </g>
      </g>
    </g>
    <circle id="Ellipse_19" data-name="Ellipse 19" class="cls-2" cx="2.5" cy="2.5" r="2.5" transform="translate(343.9 352)"/>
  </g>
</svg>
