<?xml version="1.0" encoding="utf-8"?>
<!-- Generator: Adobe Illustrator 19.0.0, SVG Export Plug-In . SVG Version: 6.00 Build 0)  -->
<svg version="1.1" id="Layer_1" xmlns="http://www.w3.org/2000/svg" xmlns:xlink="http://www.w3.org/1999/xlink" x="0px" y="0px"
	 viewBox="-12.7 8.2 84 30.7" style="enable-background:new -12.7 8.2 84 30.7;" xml:space="preserve">
<style type="text/css">
	.st0{fill:#37CC56;}
</style>
<g>
	<path id="XMLID_5_" class="st0" d="M8.9,26c-0.9-0.9-2.1-1.4-3.4-1.4c-1.1,0-2.1,0.4-2.9,1l-6.9-4.5V21c0.1-0.3,0.1-0.7,0.1-1.1
		c0-0.3-0.1-0.6-0.1-0.9l7.6-5.6c0.5,1.1,1.1,2.4,1.6,3.3c0.3,0.7,1.3,0.7,1.5,0c0.6-1.2,1.6-3.3,2-4.5c0.1-0.3,0.1-0.5,0.1-0.8
		c0-0.8-0.3-1.5-0.9-2.1S6.3,8.5,5.5,8.5S4,8.9,3.5,9.4C3,10,2.6,10.7,2.6,11.5c0,0.3,0.1,0.5,0.1,0.8l-8.1,5C-6,16.6-7,16.2-8,16.2
		c-1.1,0-2,0.4-2.7,1.1c-0.7,0.7-1.1,1.6-1.1,2.7c0,0.4,0.1,0.8,0.2,1.1c0.5,1.5,1.7,4.1,2.7,5.7c0.3,0.9,1.6,0.9,2,0
		c0.5-1,1.3-2.5,1.8-3.8l5.9,5.3c-0.1,0.3-0.1,0.6-0.1,0.9c0,0.5,0.1,1,0.2,1.5c0.6,1.9,2.1,5.3,3.3,7.3c0.5,1.1,2.1,1.1,2.5,0
		c1.1-2,2.7-5.4,3.3-7.4c0.1-0.4,0.2-0.9,0.2-1.3C10.3,28,9.7,26.9,8.9,26z M4.3,10.3C4.6,9.9,5,9.7,5.5,9.7c0.5,0,0.9,0.2,1.2,0.5
		C7,10.6,7.2,11,7.2,11.5S7,12.4,6.7,12.7c-0.3,0.3-0.7,0.5-1.2,0.5c-0.5,0-0.9-0.2-1.2-0.5c-0.3-0.3-0.5-0.7-0.5-1.2
		C3.8,11,4,10.6,4.3,10.3z M-7.9,22.2c-0.6,0-1.2-0.3-1.6-0.7c-0.4-0.4-0.7-1-0.7-1.6c0-0.6,0.3-1.2,0.7-1.6c0.4-0.4,1-0.7,1.6-0.7
		s1.2,0.3,1.6,0.7c0.4,0.4,0.7,0.9,0.7,1.6c0,0.6-0.3,1.2-0.7,1.6C-6.8,22-7.3,22.2-7.9,22.2z M7.5,31.4c-0.5,0.5-1.2,0.9-2,0.9
		s-1.5-0.3-2-0.9c-0.5-0.5-0.9-1.2-0.9-2c0-0.8,0.3-1.5,0.9-2c0.5-0.5,1.2-0.9,2-0.9s1.5,0.3,2,0.9c0.5,0.5,0.9,1.2,0.9,2
		C8.4,30.2,8.1,30.9,7.5,31.4z"/>
	<path id="XMLID_15_" class="st0" d="M14.1,18.4h1.5V16h2.2v2.5h2.9v1.9h-2.9V25c0,1.2,0.5,1.6,1.4,1.6c0.7,0,1.2-0.2,1.8-0.5v2
		c-0.7,0.3-1.5,0.5-2.4,0.5c-1.6,0-3-0.8-3-3.1v-5.3h-1.5V18.4z"/>
	<path id="XMLID_13_" class="st0" d="M31,28.2c-1.2,0.3-2.7,0.5-3.9,0.5c-2.9,0-4.6-0.9-4.6-3.7v-6.5h2.2v6.3c0,1.5,0.9,2,2.4,2
		c0.5,0,1.1-0.1,1.7-0.1v-8.2H31L31,28.2L31,28.2z"/>
	<path id="XMLID_11_" class="st0" d="M35.2,28.4H33v-9.1c1.1-0.6,2.5-1,3.9-1c0.7,0,1.3,0.1,1.9,0.3v2.1c-0.6-0.3-1.3-0.3-1.9-0.3
		c-0.7,0-1.2,0.1-1.7,0.3V28.4z"/>
	<path id="XMLID_9_" class="st0" d="M40.3,18.4h1.5V16H44v2.5h2.9v1.9H44V25c0,1.2,0.5,1.6,1.4,1.6c0.7,0,1.2-0.2,1.8-0.5v2
		c-0.7,0.3-1.5,0.5-2.4,0.5c-1.6,0-3-0.8-3-3.1v-5.3h-1.5C40.3,20.3,40.3,18.4,40.3,18.4z"/>
	<path id="XMLID_7_" class="st0" d="M51.1,28.4h-2.2V13.1h2.3L51.1,28.4L51.1,28.4z"/>
	<path id="XMLID_4_" class="st0" d="M55,24L55,24c0.1,1.8,1.7,2.8,3.2,2.8c1.4,0,2.4-0.3,3.3-1v1.9c-0.9,0.6-2.3,0.9-3.5,0.9
		c-3.1,0-5.3-2-5.3-5.1c0-3.2,2.1-5.3,4.8-5.3c2.9,0,4.3,1.9,4.3,4.6v1.1L55,24L55,24z M59.9,22.5c-0.1-1.5-0.8-2.4-2.3-2.4
		c-1.3,0-2.3,0.9-2.5,2.4H59.9z"/>
	<path id="XMLID_1_" class="st0" d="M66.1,28.4h-2.3v-9.1c1.1-0.6,2.5-1,3.9-1c0.7,0,1.3,0.1,1.9,0.3v2.1c-0.6-0.3-1.3-0.3-1.9-0.3
		c-0.7,0-1.2,0.1-1.7,0.3V28.4z"/>
</g>
</svg>
